ggcorrmat
…
Note that this function also makes it easy to run the same correlation matrix across different levels of a factor/grouping variable. For example, if we wanted to get the same correlation coefficient matrix for color of the diamond, we can do the following-

# for reproducibility
set.seed(123)

# let's use just 5% of the data to speed it up
ggstatsplot::grouped_ggcorrmat(
  data = dplyr::sample_frac(tbl = ggplot2::diamonds, size = 0.05),
  grouping.var = cut,
  cor.vars = c(price, carat, depth:table, x:z),
  output = "correlations",
  corr.method = "robust",
  digits = 3
)
#> # A tibble: 35 x 9
#>    Group variable  price  carat  depth  table      x      y      z
#>    <chr> <chr>     <dbl>  <dbl>  <dbl>  <dbl>  <dbl>  <dbl>  <dbl>
#>  1 Fair  price     1      0.882  0.065  0.011  0.789  0.8    0.788
#>  2 Fair  carat     0.882  1      0.109 -0.003  0.93   0.929  0.92 
#>  3 Fair  depth     0.065  0.109  1     -0.683  0.009  0.01   0.358
#>  4 Fair  table     0.011 -0.003 -0.683  1      0.018  0.006 -0.221
#>  5 Fair  x         0.789  0.93   0.009  0.018  1      0.997  0.931
#>  6 Fair  y         0.8    0.929  0.01   0.006  0.997  1      0.931
#>  7 Fair  z         0.788  0.92   0.358 -0.221  0.931  0.931  1    
#>  8 Good  price     1      0.933 -0.026  0.095  0.915  0.918  0.911
#>  9 Good  carat     0.933  1     -0.012  0.15   0.986  0.986  0.984
#> 10 Good  depth    -0.026 -0.012  1     -0.506 -0.11  -0.109  0.105
#> # ... with 25 more rows
…
