ggcoefstats
…
# dataframe #3
x1 <- stats::rnorm(100)
y1 <- stats::rpois(n = 100, lambda = exp(1 + x1))
(df.3 <- data.frame(x = x1, y = y1) %>%
    tibble::as_data_frame(x = .))
#> # A tibble: 100 x 2
#>          x     y
#>      <dbl> <int>
#>  1  1.56      12
#>  2  0.0705     2
#>  3  0.129      2
#>  4  1.72      11
#>  5  0.461      3
#>  6 -1.27       0
#>  7 -0.687      2
#>  8 -0.446      0
#>  9  1.22      11
#> 10  0.360      3
#> # ... with 90 more rows

# dataframe #4
x2 <- stats::rnorm(100)
y2 <- rbinom(n = 100,
             size = 1,
             prob = stats::plogis(x2))

(df.4 <- data.frame(x = x2, y = y2) %>%
    tibble::as_data_frame(x = .))
#> # A tibble: 100 x 2
#>         x     y
#>     <dbl> <int>
#>  1  1.05      1
#>  2 -1.05      0
#>  3 -1.26      0
#>  4  3.24      1
#>  5 -0.417     0
#>  6  0.298     0
#>  7  0.637     0
#>  8 -0.484     0
#>  9  0.517     0
#> 10  0.369     1
#> # ... with 90 more rows
…
